…
```
## Rows: 288
## Columns: 3
## $ age    <dbl> 1.40, 17.50, 12.75, 11.17, 12.67, 12.67, 12.25, 12.17, 28.17, 1…
## $ height <dbl> 120.00, 227.00, 235.00, 210.00, 220.00, 189.00, 225.00, 204.00,…
## $ sex    <chr> "M", "M", "M", "M", "M", "M", "M", "M", "M", "M", "M", "M", "M"…
```

```r
elephants %>% mutate_if(is.character,as.factor)
```

```
## # A tibble: 288 × 3
##      age height sex  
##    <dbl>  <dbl> <fct>
##  1   1.4   120  M    
##  2  17.5   227  M    
##  3  12.8   235  M    
##  4  11.2   210  M    
##  5  12.7   220  M    
##  6  12.7   189  M    
##  7  12.2   225  M    
##  8  12.2   204  M    
##  9  28.2   266. M    
## 10  11.7   233  M    
## # … with 278 more rows
```

```r
#OR elephants$sex <- as.factor(elephants$sex)
elephants
```

```
## # A tibble: 288 × 3
##      age height sex  
##    <dbl>  <dbl> <chr>
##  1   1.4   120  M    
##  2  17.5   227  M    
##  3  12.8   235  M    
##  4  11.2   210  M    
##  5  12.7   220  M    
##  6  12.7   189  M    
##  7  12.2   225  M    
##  8  12.2   204  M    
##  9  28.2   266. M    
## 10  11.7   233  M    
## # … with 278 more rows
```
…
```r
vertebrates %>% mutate_if(is.character,as.factor)
```

```
## # A tibble: 24 × 26
##    TransectID Distance HuntCat  NumHou…¹ LandUse Veg_R…² Veg_S…³ Veg_l…⁴ Veg_DBH
##         <dbl>    <dbl> <fct>       <dbl> <fct>     <dbl>   <dbl>   <dbl>   <dbl>
##  1          1     7.14 Moderate       54 Park       16.7    31.2    5.78    49.6
##  2          2    17.3  None           54 Park       15.8    37.4   13.2     34.6
##  3          2    18.3  None           29 Park       16.9    32.3    4.75    42.8
##  4          3    20.8  None           29 Logging    12.4    29.4    9.78    36.6
##  5          4    16.0  None           29 Park       17.1    36     13.2     41.5
##  6          5    17.5  None           29 Park       16.5    29.2   12.9     44.1
##  7          6    24.1  None           29 Park       14.8    31.2    8.38    51.2
##  8          7    19.8  None           54 Logging    13.2    32.6    8.38    41.9
##  9          8     5.78 High           25 Neither    12.6    23.7    5.13    45.2
## 10          9     5.13 High           73 Logging    16      27.1    9.75    69.3
## # … with 14 more rows, 17 more variables: Veg_Canopy <dbl>,
## #   Veg_Understory <dbl>, RA_Apes <dbl>, RA_Birds <dbl>, RA_Elephant <dbl>,
## #   RA_Monkeys <dbl>, RA_Rodent <dbl>, RA_Ungulate <dbl>,
## #   Rich_AllSpecies <dbl>, Evenness_AllSpecies <dbl>,
## #   Diversity_AllSpecies <dbl>, Rich_BirdSpecies <dbl>,
## #   Evenness_BirdSpecies <dbl>, Diversity_BirdSpecies <dbl>,
## #   Rich_MammalSpecies <dbl>, Evenness_MammalSpecies <dbl>, …
```
…
