…
```
## [1] TRUE
```

2. How many genera and species are represented in the data? What are the total number of observations? Which species is most/ least frequently sampled in the study?


```r
deserts %>% count(species)
```

```
## # A tibble: 40 × 2
##    species             n
##    <chr>           <int>
##  1 albigula         1252
##  2 audubonii          75
##  3 baileyi          2891
##  4 bilineata         303
##  5 brunneicapillus    50
##  6 chlorurus          39
##  7 clarki              1
##  8 eremicus         1299
##  9 flavus           1597
## 10 fulvescens         75
## # … with 30 more rows
```
…
