…
```r
gapminder %>% 
  group_by(country) %>% 
  mutate("pop_growth"=max(gdpPercap)-min(gdpPercap)) %>% 
  arrange(desc(pop_growth)) %>% 
  select(country,pop_growth)
```

```
## # A tibble: 1,704 × 2
## # Groups:   country [142]
##    country pop_growth
##    <fct>        <dbl>
##  1 Kuwait      85405.
##  2 Kuwait      85405.
##  3 Kuwait      85405.
##  4 Kuwait      85405.
##  5 Kuwait      85405.
##  6 Kuwait      85405.
##  7 Kuwait      85405.
##  8 Kuwait      85405.
##  9 Kuwait      85405.
## 10 Kuwait      85405.
## # … with 1,694 more rows
```
…
