…
## Practice
1. Re-examine `heartrate2`. Use `separate()` for the sexes, `pivot_longer()` to tidy, and `arrange()` to organize by patient and drug. Store this as a new object `heartrate3`.  

```r
heartrate3<-heartrate2 %>% 
  separate(patient, into=c("patient","sex"),sep='_') %>% 
  pivot_longer(-c(patient,sex),
               names_to="drug",
               values_to = "heartrate")
heartrate3
```

```
## # A tibble: 24 × 4
##    patient  sex   drug  heartrate
##    <chr>    <chr> <chr>     <dbl>
##  1 Margaret f     a            72
##  2 Margaret f     b            74
##  3 Margaret f     c            80
##  4 Margaret f     d            68
##  5 Frank    m     a            84
##  6 Frank    m     b            84
##  7 Frank    m     c            88
##  8 Frank    m     d            76
##  9 Hawkeye  m     a            64
## 10 Hawkeye  m     b            66
## # … with 14 more rows
```

2. `unite()` is the opposite of separate(). Its syntax is straightforward. You only need to give a new column name and then list the columns to combine with a separation character.  Give it a try below by recombining patient and sex from `heartrate3`.  

```r
heartrate3 %>% 
  unite(patient_sex,"patient","sex",sep=" ")
```

```
## # A tibble: 24 × 3
##    patient_sex drug  heartrate
##    <chr>       <chr>     <dbl>
##  1 Margaret f  a            72
##  2 Margaret f  b            74
##  3 Margaret f  c            80
##  4 Margaret f  d            68
##  5 Frank m     a            84
##  6 Frank m     b            84
##  7 Frank m     c            88
##  8 Frank m     d            76
##  9 Hawkeye m   a            64
## 10 Hawkeye m   b            66
## # … with 14 more rows
```
…
