…
**3. Change the class of the variables `taxon` and `order` to factors and display their levels.**  

```r
homerange$taxon <- as.factor(homerange$taxon)
homerange$order <- as.factor(homerange$order)
```

```r
select_if(homerange, is.factor)
```

```
## # A tibble: 569 × 2
##    taxon         order         
##    <fct>         <fct>         
##  1 lake fishes   anguilliformes
##  2 river fishes  cypriniformes 
##  3 river fishes  cypriniformes 
##  4 river fishes  cypriniformes 
##  5 river fishes  cypriniformes 
##  6 river fishes  esociformes   
##  7 marine fishes gadiformes    
##  8 marine fishes gadiformes    
##  9 marine fishes perciformes   
## 10 marine fishes perciformes   
## # … with 559 more rows
```
…
**4. What taxa are represented in the `homerange` data frame? Make a new data frame `taxa` that is restricted to taxon, common name, class, order, family, genus, species.**  

```r
taxa <- select(homerange, "taxon", "class", "order", "family", "genus", "species")
taxa
```

```
## # A tibble: 569 × 6
##    taxon         class          order          family       genus       species 
##    <fct>         <chr>          <fct>          <chr>        <chr>       <chr>   
##  1 lake fishes   actinopterygii anguilliformes anguillidae  anguilla    rostrata
##  2 river fishes  actinopterygii cypriniformes  catostomidae moxostoma   poecilu…
##  3 river fishes  actinopterygii cypriniformes  cyprinidae   campostoma  anomalum
##  4 river fishes  actinopterygii cypriniformes  cyprinidae   clinostomus fundulo…
##  5 river fishes  actinopterygii cypriniformes  cyprinidae   rhinichthys catarac…
##  6 river fishes  actinopterygii esociformes    esocidae     esox        masquin…
##  7 marine fishes actinopterygii gadiformes     gadidae      pollachius  pollach…
##  8 marine fishes actinopterygii gadiformes     gadidae      pollachius  virens  
##  9 marine fishes actinopterygii perciformes    acanthuridae acanthurus  lineatus
## 10 marine fishes actinopterygii perciformes    acanthuridae naso        liturat…
## # … with 559 more rows
```

**5. The variable `taxon` identifies the large, common name groups of the species represented in `homerange`. Make a table the shows the counts for each of these `taxon`.**  

```r
taxa %>% group_by(species, taxon) %>% tally()
```

```
## # A tibble: 544 × 3
## # Groups:   species [517]
##    species          taxon             n
##    <chr>            <fct>         <int>
##  1 aberti           birds             1
##  2 aberti           mammals           1
##  3 adspersus        marine fishes     1
##  4 aedon            birds             1
##  5 aegyptius        lizards           1
##  6 aethiopicus      mammals           1
##  7 africaeaustralis mammals           1
##  8 africana         mammals           1
##  9 africanus        mammals           1
## 10 agassizii        tortoises         1
## # … with 534 more rows
```
…
**10. As measured by the data, which snake species has the smallest homerange? Show all of your work, please. Look this species up online and tell me about it!** **Snake is found in taxon column**    

```r
snakes<-select(homerange, "species", "taxon","mean.hra.m2")
```

```r
snakes1 <- filter(snakes, taxon=="snakes")
snakes1
```

```
## # A tibble: 41 × 3
##    species                  taxon  mean.hra.m2
##    <chr>                    <fct>        <dbl>
##  1 vermis                   snakes         700
##  2 viridis                  snakes         253
##  3 constrictor              snakes      151000
##  4 constrictor flaviventris snakes      114500
##  5 punctatus                snakes        6476
##  6 couperi                  snakes     1853000
##  7 guttata emoryi           snakes      150600
##  8 obsoleta                 snakes       46000
##  9 platirhinos              snakes      516375
## 10 viridiflavus             snakes      110900
## # … with 31 more rows
```
…
