…
```
##  [1] "name"       "gender"     "eye_color"  "race"       "hair_color"
##  [6] "height"     "publisher"  "skin_color" "alignment"  "weight"
```

```r
superhero_powers <-janitor::clean_names(superhero_powers)
superhero_powers
```

```
## # A tibble: 667 × 168
##    hero_names    agility accel…¹ lante…² dimen…³ cold_…⁴ durab…⁵ stealth energ…⁶
##    <chr>         <lgl>   <lgl>   <lgl>   <lgl>   <lgl>   <lgl>   <lgl>   <lgl>  
##  1 3-D Man       TRUE    FALSE   FALSE   FALSE   FALSE   FALSE   FALSE   FALSE  
##  2 A-Bomb        FALSE   TRUE    FALSE   FALSE   FALSE   TRUE    FALSE   FALSE  
##  3 Abe Sapien    TRUE    TRUE    FALSE   FALSE   TRUE    TRUE    FALSE   FALSE  
##  4 Abin Sur      FALSE   FALSE   TRUE    FALSE   FALSE   FALSE   FALSE   FALSE  
##  5 Abomination   FALSE   TRUE    FALSE   FALSE   FALSE   FALSE   FALSE   FALSE  
##  6 Abraxas       FALSE   FALSE   FALSE   TRUE    FALSE   FALSE   FALSE   FALSE  
##  7 Absorbing Man FALSE   FALSE   FALSE   FALSE   TRUE    TRUE    FALSE   TRUE   
##  8 Adam Monroe   FALSE   TRUE    FALSE   FALSE   FALSE   FALSE   FALSE   FALSE  
##  9 Adam Strange  FALSE   FALSE   FALSE   FALSE   FALSE   TRUE    TRUE    FALSE  
## 10 Agent Bob     FALSE   FALSE   FALSE   FALSE   FALSE   FALSE   TRUE    FALSE  
## # … with 657 more rows, 159 more variables: flight <lgl>, danger_sense <lgl>,
## #   underwater_breathing <lgl>, marksmanship <lgl>, weapons_master <lgl>,
## #   power_augmentation <lgl>, animal_attributes <lgl>, longevity <lgl>,
## #   intelligence <lgl>, super_strength <lgl>, cryokinesis <lgl>,
## #   telepathy <lgl>, energy_armor <lgl>, energy_blasts <lgl>,
## #   duplication <lgl>, size_changing <lgl>, density_control <lgl>,
## #   stamina <lgl>, astral_travel <lgl>, audio_control <lgl>, dexterity <lgl>, …
```
…
2. Notice that we have some neutral superheros! Who are they?

```r
superhero_info %>% 
  select(name, alignment) %>% 
  filter(alignment=="neutral")
```

```
## # A tibble: 24 × 2
##    name         alignment
##    <chr>        <chr>    
##  1 Bizarro      neutral  
##  2 Black Flash  neutral  
##  3 Captain Cold neutral  
##  4 Copycat      neutral  
##  5 Deadpool     neutral  
##  6 Deathstroke  neutral  
##  7 Etrigan      neutral  
##  8 Galactus     neutral  
##  9 Gladiator    neutral  
## 10 Indigo       neutral  
## # … with 14 more rows
```
## `superhero_info`
3. Let's say we are only interested in the variables name, alignment, and "race". How would you isolate these variables from `superhero_info`?

```r
superhero_info %>% 
  select(name, alignment, race)
```

```
## # A tibble: 734 × 3
##    name          alignment race             
##    <chr>         <chr>     <chr>            
##  1 A-Bomb        good      Human            
##  2 Abe Sapien    good      Icthyo Sapien    
##  3 Abin Sur      good      Ungaran          
##  4 Abomination   bad       Human / Radiation
##  5 Abraxas       bad       Cosmic Entity    
##  6 Absorbing Man bad       Human            
##  7 Adam Monroe   good      <NA>             
##  8 Adam Strange  good      Human            
##  9 Agent 13      good      <NA>             
## 10 Agent Bob     good      Human            
## # … with 724 more rows
```

## Not Human
4. List all of the superheros that are not human.

```r
superhero_info %>% 
  filter(race!="Human") %>% 
  select(name,race)
```

```
## # A tibble: 222 × 2
##    name         race             
##    <chr>        <chr>            
##  1 Abe Sapien   Icthyo Sapien    
##  2 Abin Sur     Ungaran          
##  3 Abomination  Human / Radiation
##  4 Abraxas      Cosmic Entity    
##  5 Ajax         Cyborg           
##  6 Alien        Xenomorph XX121  
##  7 Amazo        Android          
##  8 Angel        Vampire          
##  9 Angel Dust   Mutant           
## 10 Anti-Monitor God / Eternal    
## # … with 212 more rows
```
…
```r
#Sif, Thor, and Thor Girl.
```

8. Among the bad guys, who are the male humans over 200 inches in height?

```r
bad_guys %>% 
  filter(height>=200) %>% 
  select(name,height)
```

```
## # A tibble: 25 × 2
##    name           height
##    <chr>           <dbl>
##  1 Abomination       203
##  2 Alien             244
##  3 Amazo             257
##  4 Apocalypse        213
##  5 Bane              203
##  6 Bloodaxe          218
##  7 Darkseid          267
##  8 Doctor Doom       201
##  9 Doctor Doom II    201
## 10 Doomsday          244
## # … with 15 more rows
```

9. OK, so are there more good guys or bad guys that are bald (personal interest)?

```r
good_guys %>% 
  filter(hair_color=="No Hair")
```

```
## # A tibble: 37 × 10
##    name       gender eye_c…¹ race  hair_…² height publi…³ skin_…⁴ align…⁵ weight
##    <chr>      <chr>  <chr>   <chr> <chr>    <dbl> <chr>   <chr>   <chr>    <dbl>
##  1 A-Bomb     Male   yellow  Human No Hair    203 Marvel… <NA>    good       441
##  2 Abe Sapien Male   blue    Icth… No Hair    191 Dark H… blue    good        65
##  3 Abin Sur   Male   blue    Unga… No Hair    185 DC Com… red     good        90
##  4 Beta Ray … Male   <NA>    <NA>  No Hair    201 Marvel… <NA>    good       216
##  5 Bishop     Male   brown   Muta… No Hair    198 Marvel… <NA>    good       124
##  6 Black Lig… Male   brown   <NA>  No Hair    185 DC Com… <NA>    good        90
##  7 Blaquesmi… <NA>   black   <NA>  No Hair     NA Marvel… <NA>    good        NA
##  8 Bloodhawk  Male   black   Muta… No Hair     NA Marvel… <NA>    good        NA
##  9 Crimson D… Male   brown   <NA>  No Hair    180 Marvel… <NA>    good       104
## 10 Donatello  Male   green   Muta… No Hair     NA IDW Pu… green   good        NA
## # … with 27 more rows, and abbreviated variable names ¹​eye_color, ²​hair_color,
## #   ³​publisher, ⁴​skin_color, ⁵​alignment
```

```r
bad_guys %>% 
  filter(hair_color=="No Hair")
```

```
## # A tibble: 35 × 10
##    name       gender eye_c…¹ race  hair_…² height publi…³ skin_…⁴ align…⁵ weight
##    <chr>      <chr>  <chr>   <chr> <chr>    <dbl> <chr>   <chr>   <chr>    <dbl>
##  1 Abominati… Male   green   Huma… No Hair  203   Marvel… <NA>    bad        441
##  2 Absorbing… Male   blue    Human No Hair  193   Marvel… <NA>    bad        122
##  3 Alien      Male   <NA>    Xeno… No Hair  244   Dark H… black   bad        169
##  4 Annihilus  Male   green   <NA>  No Hair  180   Marvel… <NA>    bad         90
##  5 Anti-Moni… Male   yellow  God … No Hair   61   DC Com… <NA>    bad         NA
##  6 Black Man… Male   black   Human No Hair  188   DC Com… <NA>    bad         92
##  7 Bloodwrai… Male   white   <NA>  No Hair   30.5 Marvel… <NA>    bad         NA
##  8 Brainiac   Male   green   Andr… No Hair  198   DC Com… green   bad        135
##  9 Darkseid   Male   red     New … No Hair  267   DC Com… grey    bad        817
## 10 Darth Vad… Male   yellow  Cybo… No Hair  198   George… <NA>    bad        135
## # … with 25 more rows, and abbreviated variable names ¹​eye_color, ²​hair_color,
## #   ³​publisher, ⁴​skin_color, ⁵​alignment
```

```r
#More good guys are bald than bad guys.
```

10. Let's explore who the really "big" superheros are. In the `superhero_info` data, which have a height over 200 or weight greater than or equal to 450?

```r
superhero_info %>% 
  filter(height>200 | weight>=450) %>% 
  select(name,height,weight)
```

```
## # A tibble: 60 × 3
##    name          height weight
##    <chr>          <dbl>  <dbl>
##  1 A-Bomb           203    441
##  2 Abomination      203    441
##  3 Alien            244    169
##  4 Amazo            257    173
##  5 Ant-Man          211    122
##  6 Anti-Venom       229    358
##  7 Apocalypse       213    135
##  8 Bane             203    180
##  9 Beta Ray Bill    201    216
## 10 Bloodaxe         218    495
## # … with 50 more rows
```
…
14. How many superheros have a combination of accelerated healing, durability, and super strength?

```r
superhero_powers %>% 
  filter(accelerated_healing==T, durability==T,super_strength==T) %>% 
  select(hero_names,accelerated_healing,durability,super_strength)
```

```
## # A tibble: 97 × 4
##    hero_names   accelerated_healing durability super_strength
##    <chr>        <lgl>               <lgl>      <lgl>         
##  1 A-Bomb       TRUE                TRUE       TRUE          
##  2 Abe Sapien   TRUE                TRUE       TRUE          
##  3 Angel        TRUE                TRUE       TRUE          
##  4 Anti-Monitor TRUE                TRUE       TRUE          
##  5 Anti-Venom   TRUE                TRUE       TRUE          
##  6 Aquaman      TRUE                TRUE       TRUE          
##  7 Arachne      TRUE                TRUE       TRUE          
##  8 Archangel    TRUE                TRUE       TRUE          
##  9 Ardina       TRUE                TRUE       TRUE          
## 10 Ares         TRUE                TRUE       TRUE          
## # … with 87 more rows
```
…
