…
3. We are only interested in code, sex, weight, year of birth. Restrict the data to these variables and store the dataframe as a new object.

```
## [1] "data_code"     "rec_year"      "rec_month"     "rec_day"      
## [5] "animal_code"   "animal_sex"    "animal_weight" "animal_yob"
```

```
## # A tibble: 8,325 × 4
##    data_code animal_sex animal_weight animal_yob
##    <chr>     <chr>              <dbl>      <dbl>
##  1 CBH01     F                    890       1981
##  2 CBH01     F                   1074       1983
##  3 CBH01     F                   1060       1983
##  4 CBH01     F                    989       1984
##  5 CBH01     F                   1062       1984
##  6 CBH01     F                    978       1985
##  7 CBH01     F                   1068       1985
##  8 CBH01     F                   1024       1985
##  9 CBH01     F                    978       1986
## 10 CBH01     F                   1188       1986
## # … with 8,315 more rows
```

4. Pull out the animals born between 1980-1990.

```
## # A tibble: 435 × 4
##    data_code animal_sex animal_weight animal_yob
##    <chr>     <chr>              <dbl>      <dbl>
##  1 CBH01     F                    890       1981
##  2 CBH01     F                   1074       1983
##  3 CBH01     F                   1060       1983
##  4 CBH01     F                    989       1984
##  5 CBH01     F                   1062       1984
##  6 CBH01     F                    978       1985
##  7 CBH01     F                   1068       1985
##  8 CBH01     F                   1024       1985
##  9 CBH01     F                    978       1986
## 10 CBH01     F                   1188       1986
## # … with 425 more rows
```
…
