…
```r
#install.packages("skimr")
library("skimr")
```

## Load the data
For this lab, we will use the built-in data on mammal sleep patterns. From: _V. M. Savage and G. B. West. A quantitative, theoretical framework for understanding mammalian sleep. Proceedings of the National Academy of Sciences, 104 (3):1051-1056, 2007_.

```r
msleep
```

```
## # A tibble: 83 × 11
##    name         genus vore  order conse…¹ sleep…² sleep…³ sleep…⁴ awake  brainwt
##    <chr>        <chr> <chr> <chr> <chr>     <dbl>   <dbl>   <dbl> <dbl>    <dbl>
##  1 Cheetah      Acin… carni Carn… lc         12.1    NA    NA      11.9 NA      
##  2 Owl monkey   Aotus omni  Prim… <NA>       17       1.8  NA       7    0.0155 
##  3 Mountain be… Aplo… herbi Rode… nt         14.4     2.4  NA       9.6 NA      
##  4 Greater sho… Blar… omni  Sori… lc         14.9     2.3   0.133   9.1  0.00029
##  5 Cow          Bos   herbi Arti… domest…     4       0.7   0.667  20    0.423  
##  6 Three-toed … Brad… herbi Pilo… <NA>       14.4     2.2   0.767   9.6 NA      
##  7 Northern fu… Call… carni Carn… vu          8.7     1.4   0.383  15.3 NA      
##  8 Vesper mouse Calo… <NA>  Rode… <NA>        7      NA    NA      17   NA      
##  9 Dog          Canis carni Carn… domest…    10.1     2.9   0.333  13.9  0.07   
## 10 Roe deer     Capr… herbi Arti… lc          3      NA    NA      21    0.0982 
## # … with 73 more rows, 1 more variable: bodywt <dbl>, and abbreviated variable
## #   names ¹​conservation, ²​sleep_total, ³​sleep_rem, ⁴​sleep_cycle
```
…
```
##  [1] "name"         "genus"        "vore"         "order"        "conservation"
##  [6] "sleep_total"  "sleep_rem"    "sleep_cycle"  "awake"        "brainwt"     
## [11] "bodywt"
```

We will also use the awesome [palmerpenguins](https://allisonhorst.github.io/palmerpenguins/articles/intro.html) data in the second part of lab.

```r
library("palmerpenguins")
palmerpenguins::penguins_raw
```

```
## # A tibble: 344 × 17
##    studyName Sample Num…¹ Species Region Island Stage Indiv…² Clutc…³ `Date Egg`
##    <chr>            <dbl> <chr>   <chr>  <chr>  <chr> <chr>   <chr>   <date>    
##  1 PAL0708              1 Adelie… Anvers Torge… Adul… N1A1    Yes     2007-11-11
##  2 PAL0708              2 Adelie… Anvers Torge… Adul… N1A2    Yes     2007-11-11
##  3 PAL0708              3 Adelie… Anvers Torge… Adul… N2A1    Yes     2007-11-16
##  4 PAL0708              4 Adelie… Anvers Torge… Adul… N2A2    Yes     2007-11-16
##  5 PAL0708              5 Adelie… Anvers Torge… Adul… N3A1    Yes     2007-11-16
##  6 PAL0708              6 Adelie… Anvers Torge… Adul… N3A2    Yes     2007-11-16
##  7 PAL0708              7 Adelie… Anvers Torge… Adul… N4A1    No      2007-11-15
##  8 PAL0708              8 Adelie… Anvers Torge… Adul… N4A2    No      2007-11-15
##  9 PAL0708              9 Adelie… Anvers Torge… Adul… N5A1    Yes     2007-11-09
## 10 PAL0708             10 Adelie… Anvers Torge… Adul… N5A2    Yes     2007-11-09
## # … with 334 more rows, 8 more variables: `Culmen Length (mm)` <dbl>,
## #   `Culmen Depth (mm)` <dbl>, `Flipper Length (mm)` <dbl>,
## #   `Body Mass (g)` <dbl>, Sex <chr>, `Delta 15 N (o/oo)` <dbl>,
## #   `Delta 13 C (o/oo)` <dbl>, Comments <chr>, and abbreviated variable names
## #   ¹​`Sample Number`, ²​`Individual ID`, ³​`Clutch Completion`
```
…
