…
```
## # A tibble: 571 × 21
##    Table S3.…¹ ...2  ...3  ...4  ...5  ...6  ...7  ...8  ...9  ...10 ...11 ...12
##    <chr>       <chr> <chr> <chr> <chr> <chr> <chr> <chr> <chr> <chr> <chr> <chr>
##  1 <NA>        <NA>  <NA>  <NA>  <NA>  <NA>  <NA>  <NA>  <NA>  <NA>  <NA>  <NA> 
##  2 Order       Fami… Comm… Scie… Diet  Life… Habi… Urba… Migr… log1… Mean… Mean…
##  3 Anseriform… Anat… Amer… Anas… Vege… Long  Wetl… No    Short 3.09  9     1    
##  4 Anseriform… Anat… Amer… Anas… Vege… Midd… Wetl… No    Short 2.88  7.5   1    
##  5 Anseriform… Anat… Barr… Buce… Inve… Midd… Wetl… No    Mode… 2.96  10.5  3    
##  6 Anseriform… Anat… Blac… Bran… Vege… Long  Wetl… No    Mode… 3.11  3.5   2.5  
##  7 Anseriform… Anat… Blac… Mela… Inve… Midd… Wetl… No    Mode… 3.02  9.5   2    
##  8 Anseriform… Anat… Blac… Dend… Vege… Short Wetl… No    With… 2.88  13.5  1    
##  9 Anseriform… Anat… Blue… Anas… Vege… Midd… Wetl… No    Mode… 2.56  10    0.6  
## 10 Anseriform… Anat… Buff… Buce… Inve… Midd… Wetl… No    Short 2.60  8.5   2    
## # … with 561 more rows, 9 more variables: ...13 <chr>, ...14 <chr>,
## #   ...15 <chr>, ...16 <chr>, ...17 <chr>, ...18 <chr>, ...19 <chr>,
## #   ...20 <chr>, ...21 <chr>, and abbreviated variable name
## #   ¹​`Table S3. Ecological and life history traits for the 551 species include in the CBC trend analyses.`
```
…
